%YAML 1.1
%TAG !u! tag:unity3d.com,2011:
--- !u!1 &3190452505484648268
GameObject:
  m_ObjectHideFlags: 0
  m_CorrespondingSourceObject: {fileID: 0}
  m_PrefabInstance: {fileID: 0}
  m_PrefabAsset: {fileID: 0}
  serializedVersion: 6
  m_Component:
  - component: {fileID: 3190452505484648271}
  - component: {fileID: 3190452505484648270}
  - component: {fileID: 1173494897826975697}
  - component: {fileID: 1634553539961410931}
  m_Layer: 0
  m_Name: UMA_GLIB
  m_TagString: Untagged
  m_Icon: {fileID: 0}
  m_NavMeshLayer: 0
  m_StaticEditorFlags: 0
  m_IsActive: 1
--- !u!4 &3190452505484648271
Transform:
  m_ObjectHideFlags: 0
  m_CorrespondingSourceObject: {fileID: 0}
  m_PrefabInstance: {fileID: 0}
  m_PrefabAsset: {fileID: 0}
  m_GameObject: {fileID: 3190452505484648268}
  m_LocalRotation: {x: 0, y: 0, z: 0, w: 1}
  m_LocalPosition: {x: 0, y: 0, z: 0}
  m_LocalScale: {x: 1, y: 1, z: 1}
  m_Children: []
  m_Father: {fileID: 0}
  m_RootOrder: 0
  m_LocalEulerAnglesHint: {x: 0, y: 0, z: 0}
--- !u!114 &3190452505484648270
MonoBehaviour:
  m_ObjectHideFlags: 0
  m_CorrespondingSourceObject: {fileID: 0}
  m_PrefabInstance: {fileID: 0}
  m_PrefabAsset: {fileID: 0}
  m_GameObject: {fileID: 3190452505484648268}
  m_Enabled: 1
  m_EditorHideFlags: 0
  m_Script: {fileID: 11500000, guid: 5fd2661724b5ab24ea2d5da16a31cb27, type: 3}
  m_Name: 
  m_EditorClassIdentifier: 
--- !u!114 &1173494897826975697
MonoBehaviour:
  m_ObjectHideFlags: 0
  m_CorrespondingSourceObject: {fileID: 0}
  m_PrefabInstance: {fileID: 0}
  m_PrefabAsset: {fileID: 0}
  m_GameObject: {fileID: 3190452505484648268}
  m_Enabled: 1
  m_EditorHideFlags: 0
  m_Script: {fileID: 11500000, guid: b41d019fd27682f4fa2cadfe47b38e0a, type: 3}
  m_Name: 
  m_EditorClassIdentifier: 
  fitAtlas: 1
  textureMerge: {fileID: 11400000, guid: d242fc6cda21e9b42b95a0c72bb3bee1, type: 2}
  convertRenderTexture: 0
  convertMipMaps: 1
  atlasResolution: 4096
  defaultOverlayAsset: {fileID: 11400000, guid: fe30fbf67b51de8499624c6913a39e64,
    type: 2}
  meshCombiner: {fileID: 1634553539961410931}
  InitialScaleFactor: 2
  IterationCount: 1
  fastGeneration: 1
  processAllPending: 0
  garbageCollectionRate: 8
--- !u!114 &1634553539961410931
MonoBehaviour:
  m_ObjectHideFlags: 0
  m_CorrespondingSourceObject: {fileID: 0}
  m_PrefabInstance: {fileID: 0}
  m_PrefabAsset: {fileID: 0}
  m_GameObject: {fileID: 3190452505484648268}
  m_Enabled: 1
  m_EditorHideFlags: 0
  m_Script: {fileID: 11500000, guid: 10a9eb5309083c449ab447538c71855e, type: 3}
  m_Name: 
  m_EditorClassIdentifier: 
