%YAML 1.1
%TAG !u! tag:unity3d.com,2011:
--- !u!114 &11400000
MonoBehaviour:
  m_ObjectHideFlags: 0
  m_CorrespondingSourceObject: {fileID: 0}
  m_PrefabInstance: {fileID: 0}
  m_PrefabAsset: {fileID: 0}
  m_GameObject: {fileID: 0}
  m_Enabled: 1
  m_EditorHideFlags: 0
  m_Script: {fileID: 11500000, guid: f0188188c253e0c4bb9b46e19fa7312e, type: 3}
  m_Name: MaleSurgicalMaskBlack_Recipe
  m_EditorClassIdentifier: 
  label: 
  resourcesOnly: 0
  recipeType: Wardrobe
  DisplayValue: Male Black Mask
  compatibleRaces:
  - HumanMale
  - HumanMaleDCS
  wardrobeRecipeThumbs:
  - race: HumanMale
    filename: 
    thumb: {fileID: 0}
  - race: HumanMaleDCS
    filename: 
    thumb: {fileID: 0}
  wardrobeSlot: Face
  Hides: []
  HideTags: []
  suppressWardrobeSlots: []
  activeWardrobeSet: []
  MeshHideAssets: []
  recipeString: '{"version":3,"packedSlotDataList":[],"slotsV2":[],"slotsV3":[{"id":"","scale":1,"copyIdx":-1,"overlays":[]},{"id":"MaleSurgicalMask","scale":100,"copyIdx":-1,"overlays":[{"id":"SurgicalMaskBlack_Overlay","colorIdx":0,"rect":[0.0,0.0,0.0,0.0]}]}],"colors":[],"fColors":[{"name":"-","colors":[255,255,255,255,0,0,0,0]}],"sharedColorCount":0,"race":"","packedDna":[]}'
  IncompatibleRecipes: []
  UserField: 
  replaces: Nothing
